…
Twitter has [extensive information](https://help.twitter.com/en/using-twitter/twitter-trending-faqs) on trending topics and their API enables you to see topics that are trending globally or regionally. Twitter uses [Yahoo! Where on Earth](https://developer.yahoo.com/geo/geoplanet/guide/concepts.html) identifiers (WOEIDs) for the regions which can be obtained from `rtweet::trends_available()`:


```r
library(rtweet)
library(tidyverse)
```


```r
(trends_avail <- trends_available())
```

```
## # A tibble: 467 x 8
##    name       url      parentid country woeid countryCode  code place_type
##  * <chr>      <chr>       <int> <chr>   <int> <chr>       <int> <chr>     
##  1 Worldwide  http://…        0 ""          1 <NA>           19 Supername 
##  2 Winnipeg   http://… 23424775 Canada   2972 CA              7 Town      
##  3 Ottawa     http://… 23424775 Canada   3369 CA              7 Town      
##  4 Quebec     http://… 23424775 Canada   3444 CA              7 Town      
##  5 Montreal   http://… 23424775 Canada   3534 CA              7 Town      
##  6 Toronto    http://… 23424775 Canada   4118 CA              7 Town      
##  7 Edmonton   http://… 23424775 Canada   8676 CA              7 Town      
##  8 Calgary    http://… 23424775 Canada   8775 CA              7 Town      
##  9 Vancouver  http://… 23424775 Canada   9807 CA              7 Town      
## 10 Birmingham http://… 23424975 United… 12723 GB              7 Town      
## # ... with 457 more rows
```
…
The Twitter API is somewhat unforgiving and unfriendly when you use it directly since it requires the use of a WOEID. Michael has made life much easier for us all by enabling the use of names or regular expressions when asking for trends from a particular place. That means we don't even need to care about capitalization:


```r
(us <- get_trends("united states"))
```

```
## # A tibble: 50 x 9
##    trend   url         promoted_content query   tweet_volume place   woeid
##  * <chr>   <chr>       <lgl>            <chr>          <int> <chr>   <int>
##  1 Teairr… http://twi… NA               %22Tea…           NA Unite… 2.34e7
##  2 #Wedne… http://twi… NA               %23Wed…       162658 Unite… 2.34e7
##  3 #NetNe… http://twi… NA               %23Net…        79857 Unite… 2.34e7
##  4 #Funny… http://twi… NA               %23Fun…           NA Unite… 2.34e7
##  5 Novart… http://twi… NA               Novart…       139836 Unite… 2.34e7
##  6 #TWcha… http://twi… NA               %23TWc…           NA Unite… 2.34e7
##  7 #Outla… http://twi… NA               %23Out…           NA Unite… 2.34e7
##  8 Haspel  http://twi… NA               Haspel        258046 Unite… 2.34e7
##  9 Annett… http://twi… NA               %22Ann…           NA Unite… 2.34e7
## 10 Carlos… http://twi… NA               %22Car…           NA Unite… 2.34e7
## # ... with 40 more rows, and 2 more variables: as_of <dttm>,
## #   created_at <dttm>
```
…
