…
Michael has provided a very powerful search interace for Twitter data mining. `rtweet::search_tweets()` retrieves, parses and extracts an asounding amount of data for you to then use. Let's search Twitter for the `#rstats` hashtag and see what is available:


```r
library(rtweet)
library(tidyverse)
```

```r
(rstats <- search_tweets("#rstats", n=300)) # pull 300 tweets that used the "#rstats" hashtag
```

```
## # A tibble: 300 x 42
##             status_id          created_at            user_id
##                 <chr>              <dttm>              <chr>
##  1 948590403036569601 2018-01-03 16:22:30          280608149
##  2 948590359524786176 2018-01-03 16:22:20 781583089667420161
##  3 948590304223006721 2018-01-03 16:22:07          594746010
##  4 948590234584911872 2018-01-03 16:21:50          144529492
##  5 948589562187735040 2018-01-03 16:19:10          280455470
##  6 948589232838332416 2018-01-03 16:17:51           18057156
##  7 948589231332560896 2018-01-03 16:17:51 732217484972048384
##  8 948588899265257472 2018-01-03 16:16:32          368551889
##  9 948588777152417793 2018-01-03 16:16:03           37686255
## 10 948588614715367424 2018-01-03 16:15:24         2865404679
## # ... with 290 more rows, and 39 more variables: screen_name <chr>,
## #   text <chr>, source <chr>, reply_to_status_id <chr>,
## #   reply_to_user_id <chr>, reply_to_screen_name <chr>, is_quote <lgl>,
## #   is_retweet <lgl>, favorite_count <int>, retweet_count <int>,
## #   hashtags <list>, symbols <list>, urls_url <list>, urls_t.co <list>,
## #   urls_expanded_url <list>, media_url <list>, media_t.co <list>,
## #   media_expanded_url <list>, media_type <list>, ext_media_url <list>,
## #   ext_media_t.co <list>, ext_media_expanded_url <list>,
## #   ext_media_type <lgl>, mentions_user_id <list>,
…
