…
```
##  Found 500 records... Found 1000 records... Found 1238 records... Imported 1238 records. Simplifying...
```

A 60 second stream resulted in well over 1,000 records. 

Where are they tweeting from?


```r
count(usa, place_full_name, sort=TRUE)
```

```
## # A tibble: 686 x 2
##     place_full_name     n
##               <chr> <int>
##  1    Manhattan, NY    28
##  2      Houston, TX    26
##  3  Los Angeles, CA    23
##  4     Florida, USA    22
##  5      Chicago, IL    20
##  6     Georgia, USA    19
##  7       Texas, USA    15
##  8 Toronto, Ontario    15
##  9     Brooklyn, NY    14
## 10 Philadelphia, PA    13
## # ... with 676 more rows
```

What are they tweeting about?


```r
unnest(usa, hashtags) %>% 
  count(hashtags, sort=TRUE) %>% 
  filter(!is.na(hashtags))
```

```
## # A tibble: 321 x 2
##          hashtags     n
##             <chr> <int>
##  1            job    73
##  2      CareerArc    45
##  3         Hiring    44
##  4         hiring    32
##  5            Job    20
##  6           Jobs    20
##  7         Retail    13
##  8 WPMOYChallenge    10
##  9    Hospitality     4
## 10         Boston     3
## # ... with 311 more rows
```

What app are they using?


```r
count(usa, source, sort=TRUE)
```

```
## # A tibble: 27 x 2
##                      source     n
##                       <chr> <int>
##  1       Twitter for iPhone   818
##  2      Twitter for Android   175
##  3              TweetMyJOBS    91
##  4                Instagram    58
##  5       Twitter Web Client    40
##  6         Twitter for iPad    14
##  7 SafeTweet by TweetMyJOBS     8
##  8               Foursquare     6
##  9         Tweetbot for Mac     5
## 10                circlepix     3
## # ... with 17 more rows
```
…
