…
```r
library(rtweet)
library(tidyverse)
```

```r
rstats <- rtweet::search_tweets("#rstats", n=30)

(recent_rtweeters <- lookup_users(unique(rstats$user_id)))
```

```
## # A tibble: 27 x 20
##               user_id                name     screen_name
##                 <chr>               <chr>           <chr>
##  1         1217315090 Women in Statistics     WomenInStat
##  2          172176348               Heidi ideaofhappiness
##  3          554300827     Nujcharee (เป็ด)       Nujcharee
##  4 746493721215008768 Vidhya Kalaichelvan   itsmevidhya_k
##  5            5685812           b❆B Rudis        hrbrmstr
##  6          280608149    Hernando Cortina        cortinah
##  7 781583089667420161         Lynn Yarmey      LynnYarmey
##  8          594746010   Thibault Dejeanne     thibaultdej
##  9          144529492         Kyle Walker   kyle_e_walker
## 10          280455470         Tom Martens    tommartens68
## # ... with 17 more rows, and 17 more variables: location <chr>,
## #   description <chr>, url <chr>, protected <lgl>, followers_count <int>,
## #   friends_count <int>, listed_count <int>, statuses_count <int>,
## #   favourites_count <int>, account_created_at <dttm>, verified <lgl>,
## #   profile_url <chr>, profile_expanded_url <chr>, account_lang <chr>,
## #   profile_banner_url <chr>, profile_background_url <chr>,
## #   profile_image_url <chr>
```
…
