21 Recipes for Mining Twitter Data with rtweet
…
3.2 Solution

Use rtweet::search_tweets() or any of the timeline functions in rtweet.

3.3 Discussion

Michael has provided a very powerful search interface for Twitter data mining. rtweet::search_tweets() retrieves, parses and extracts an astounding amount of data for you to then use. Let’s search Twitter for the #rstats hashtag and see what is available:

library(rtweet)
library(tidyverse)

(rstats <- search_tweets("#rstats", n=300)) # pull 300 tweets that used the "#rstats" hashtag

## # A tibble: 300 x 87
##    user_id  status_id  created_at          screen_name text         source
##    <chr>    <chr>      <dttm>              <chr>       <chr>        <chr> 
##  1 1328949… 994248165… 2018-05-09 16:10:09 RosanaFerr… RT @Rblogge… Hoots…
##  2 1074770… 994248170… 2018-05-09 16:10:10 eFe_Gil     "RT @dataan… Twitt…
##  3 32317906 994248406… 2018-05-09 16:11:07 agairola    "RT @SanaBe… Twitt…
##  4 14199849 994248592… 2018-05-09 16:11:51 simoncolum… RT @RLadies… Twitt…
##  5 15319524 994248693… 2018-05-09 16:12:15 straighted… Benefits fr… Twitt…
##  6 4174824… 994248940… 2018-05-09 16:13:14 Pvalsfr     RT @RLangTi… Twitt…
##  7 89191817 994248946… 2018-05-09 16:13:15 BigDataIns… "Big | Data… Paper…
##  8 2245869… 994249157… 2018-05-09 16:14:06 wytham88    "RT @marska… Twitt…
##  9 3163318… 994249403… 2018-05-09 16:15:04 GamerGeekN… "RT @tarask… RssTo…
## 10 3104058… 994249415… 2018-05-09 16:15:07 thermoio    "Web devs: … Hoots…
## # ... with 290 more rows, and 81 more variables: display_text_width <dbl>,
## #   reply_to_status_id <chr>, reply_to_user_id <chr>,
## #   reply_to_screen_name <chr>, is_quote <lgl>, is_retweet <lgl>,
## #   favorite_count <int>, retweet_count <int>, hashtags <list>,
## #   symbols <list>, urls_url <list>, urls_t.co <list>,
## #   urls_expanded_url <list>, media_url <list>, media_t.co <list>,
## #   media_expanded_url <list>, media_type <list>, ext_media_url <list>,
## #   ext_media_t.co <list>, ext_media_expanded_url <list>,
## #   ext_media_type <chr>, mentions_user_id <list>,
…
