21 Recipes for Mining Twitter Data with rtweet
…
filter(rstats, retweet_count > 0) %>% 
  select(text, mentions_screen_name, retweet_count) %>% 
  mutate(text = substr(text, 1, 30)) %>% 
  unnest()

## # A tibble: 711 x 3
##    text                             retweet_count mentions_screen_name
##    <chr>                                    <int> <chr>               
##  1 RT @dataandme: ICYMI, a classi              30 dataandme           
##  2 RT @dataandme: ICYMI, a classi              30 MarkusGesmann       
##  3 RT @patilindrajeets: The R pac              54 patilindrajeets     
##  4 "RT @gp_pulipaka: Learn How to "            14 gp_pulipaka         
##  5 RT @Rbloggers: Tidying messy E              34 Rbloggers           
##  6 RT @EcographyJourna: SIDER: an              14 EcographyJourna     
##  7 RT @dataandme: .@grrrck contin              10 dataandme           
##  8 RT @dataandme: .@grrrck contin              10 grrrck              
##  9 Just published an update to th              10 <NA>                
## 10 RT @EcographyJourna: SIDER: an              14 EcographyJourna     
## # ... with 701 more rows

The text column was pared down for display brevity. If you run that code snippet you can examine it to see that it identifies the retweets and the first screen name is usually the main reference, but you get all of the screen names from the original tweet for free.

Here’s the brute-force way. A regular expression is used that matches the vast majority of retweet formats. The pattern looks for them then extracts the first found screen name:

# regex mod from https://stackoverflow.com/questions/655903/python-regular-expression-for-retweets
filter(rstats, str_detect(text, "(RT|via)((?:[[:blank:]:]\\W*@\\w+)+)")) %>% 
  select(text, mentions_screen_name, retweet_count) %>% 
  mutate(extracted = str_match(text, "(RT|via)((?:[[:blank:]:]\\W*@\\w+)+)")[,3]) %>% 
  mutate(text = substr(text, 1, 30)) %>% 
  unnest()

## # A tibble: 614 x 4
##    text                 retweet_count extracted         mentions_screen_n…
##    <chr>                        <int> <chr>             <chr>             
##  1 RT @dataandme: ICYM…            30 " @dataandme"     dataandme         
##  2 RT @dataandme: ICYM…            30 " @dataandme"     MarkusGesmann     
##  3 RT @patilindrajeets…            54 " @patilindrajee… patilindrajeets   
##  4 "RT @gp_pulipaka: L…            14 " @gp_pulipaka"   gp_pulipaka       
##  5 RT @Rbloggers: Tidy…            34 " @Rbloggers"     Rbloggers         
##  6 RT @EcographyJourna…            14 " @EcographyJour… EcographyJourna   
##  7 RT @dataandme: .@gr…            10 " @dataandme: .@… dataandme         
##  8 RT @dataandme: .@gr…            10 " @dataandme: .@… grrrck            
##  9 RT @EcographyJourna…            14 " @EcographyJour… EcographyJourna   
## 10 RT @Rbloggers: Open…            18 " @Rbloggers"     Rbloggers         
## # ... with 604 more rows
…
