21 Recipes for Mining Twitter Data with rtweet
…
2.2 Solution

Use rtweet::trends_available() to see trend areas and rtweet::get_trends() to pull trends, after which you can setup a task to retrieve and cache the trend data periodically.

2.3 Discussion

Twitter has extensive information on trending topics and their API enables you to see topics that are trending globally or regionally. Twitter uses Yahoo! Where on Earth identifiers (WOEIDs) for the regions which can be obtained from rtweet::trends_available():

library(rtweet)

library(tidyverse)

(trends_avail <- trends_available())

## # A tibble: 467 x 8
##          name                                       url parentid
##  *      <chr>                                     <chr>    <int>
##  1  Worldwide     http://where.yahooapis.com/v1/place/1        0
##  2   Winnipeg  http://where.yahooapis.com/v1/place/2972 23424775
##  3     Ottawa  http://where.yahooapis.com/v1/place/3369 23424775
##  4     Quebec  http://where.yahooapis.com/v1/place/3444 23424775
##  5   Montreal  http://where.yahooapis.com/v1/place/3534 23424775
##  6    Toronto  http://where.yahooapis.com/v1/place/4118 23424775
##  7   Edmonton  http://where.yahooapis.com/v1/place/8676 23424775
##  8    Calgary  http://where.yahooapis.com/v1/place/8775 23424775
##  9  Vancouver  http://where.yahooapis.com/v1/place/9807 23424775
## 10 Birmingham http://where.yahooapis.com/v1/place/12723 23424975
## # ... with 457 more rows, and 5 more variables: country <chr>,
## #   woeid <int>, countryCode <chr>, code <int>, place_type <chr>
…
The Twitter API is somewhat unforgiving and unfriendly when you use it directly since it requires the use of a WOEID. Michael has made life much easier for us all by enabling the use of names or regular expressions when asking for trends from a particular place. That means we don’t even need to care about capitalization:

(us <- get_trends("united states"))

## # A tibble: 50 x 9
##                          trend
##  *                       <chr>
##  1                 #backtowork
##  2            #TuesdayThoughts
##  3          #SavannahHodaTODAY
##  4           Justin Timberlake
##  5 #MyTVShowWasCanceledBecause
##  6                      #AM2DM
##  7            Carrie Underwood
##  8            The Trump Effect
##  9                   Sean Ryan
## 10               Micah Parsons
## # ... with 40 more rows, and 8 more variables: url <chr>,
## #   promoted_content <lgl>, query <chr>, tweet_volume <int>, place <chr>,
## #   woeid <int>, as_of <dttm>, created_at <dttm>
…
